[gd_scene load_steps=7 format=1]

[ext_resource path="res://scripts/explosion.gd" type="Script" id=1]
[ext_resource path="res://gfx/explosion.png" type="Texture" id=2]
[ext_resource path="res://snd/hit.wav" type="Sample" id=3]

[sub_resource type="CircleShape2D" id=1]

custom_solver_bias = 0.0
radius = 25.0

[sub_resource type="Animation" id=2]

length = 1.2
loop = false
step = 0.2
tracks/0/type = "value"
tracks/0/path = NodePath("sprite:frame")
tracks/0/interp = 1
tracks/0/imported = false
tracks/0/keys = {
"times": FloatArray( 0, 0.2, 0.4, 0.6, 0.8, 1 ),
"transitions": FloatArray( 1, 1, 1, 1, 1, 1 ),
"update": 1,
"values": [ 0, 1, 2, 3, 4, 5 ]
}

[sub_resource type="SampleLibrary" id=3]

samples/hit = {
"db": 0.0,
"pitch": 1.0,
"priority": 0,
"sample": ExtResource( 3 )
}

[node name="explosion" type="Area2D"]

input/pickable = true
shapes/0/shape = SubResource( 1 )
shapes/0/transform = Matrix32( 1, 0, 0, 1, 0, 0 )
shapes/0/trigger = false
gravity_vec = Vector2( 0, 1 )
gravity = 9.8
linear_damp = 0.1
angular_damp = 1.0
script/script = ExtResource( 1 )

[node name="CollisionShape2D" type="CollisionShape2D" parent="."]

shape = SubResource( 1 )
trigger = false
_update_shape_index = 0

[node name="sprite" type="Sprite" parent="."]

texture = ExtResource( 2 )
vframes = 6

[node name="animation" type="AnimationPlayer" parent="."]

playback/process_mode = 1
playback/default_blend_time = 0.0
root/root = NodePath("..")
anims/explosion = SubResource( 2 )
playback/active = true
playback/speed = 1.0
blend_times = [  ]
autoplay = "explosion"

[node name="timeOut" type="Timer" parent="."]

process_mode = 1
wait_time = 1.6
one_shot = true
autostart = true

[node name="sound" type="SamplePlayer2D" parent="."]

params/volume_db = 0.0
params/pitch_scale = 1.0
params/attenuation/min_distance = 1.0
params/attenuation/max_distance = 2048.0
params/attenuation/distance_exp = 1.0
config/polyphony = 1
config/samples = SubResource( 3 )
config/pitch_random = 0.0

[connection signal="area_enter" from="." to="." method="_on_explosion_area_enter"]

[connection signal="timeout" from="timeOut" to="." method="_on_timeOut_timeout"]


